"ID","OWNERID","ISDELETED","NAME","CREATEDDATE","CREATEDBYID","LASTMODIFIEDDATE","LASTMODIFIEDBYID","SYSTEMMODSTAMP","ACCOUNTNAMEEPH__C","EVENTDATE__C","THEPERSONINCHARGE__C","PPARTICIPANT__C","REMARKS__C","EVENTCONTENT__C"
"a032800000BXvK8AAL","00528000003415aAAA","false","テスト","2016-06-01T09:06:33.000Z","00528000003415aAAA","2016-06-01T09:06:33.000Z","00528000003415aAAA","2016-06-01T09:06:33.000Z","0012800000ehIMDAA2","2016-06-01","00528000003NgckAAC","テスト参加者","テスト備考","イベント内容"
"a032800000AhDwvAAF","00528000003415aAAA","false","イベント","2016-05-16T08:32:42.000Z","00528000003415aAAA","2016-05-16T08:32:42.000Z","00528000003415aAAA","2016-05-16T08:32:42.000Z","0012800000ckcdkAAA","2016-05-16","","","","テスト内容"
"a032800000AhBuWAAV","00528000003415aAAA","false","フェア","2016-05-16T05:52:07.000Z","00528000003415aAAA","2016-05-16T05:52:07.000Z","00528000003415aAAA","2016-05-16T05:52:07.000Z","0012800000ckcdfAAA","2016-05-16","","","",""
"a032800000BRbe5AAD","00528000003NgckAAC","false","イベント","2016-05-17T07:22:24.000Z","00528000003NgckAAC","2016-05-17T07:26:13.000Z","00528000003NgckAAC","2016-05-17T07:26:13.000Z","0012800000d2zSyAAI","2016-05-17","00528000003415aAAA","テスト","テスト","テスト"
"a032800000BRbfcAAD","00528000003NgckAAC","false","イベント","2016-05-17T07:26:59.000Z","00528000003NgckAAC","2016-05-17T07:26:59.000Z","00528000003NgckAAC","2016-05-17T07:26:59.000Z","0012800000d2zxyAAA","2016-05-17","00528000003415aAAA","テスト","テスト","テスト"
