"ID","ISDELETED","NAME","RECORDTYPEID","CREATEDDATE","CREATEDBYID","LASTMODIFIEDDATE","LASTMODIFIEDBYID","SYSTEMMODSTAMP","AGREEMENTNAMEWR__C","WORKINGDAY__C","REMARKS__C","OVERHEADEXPENSES__C","THEOPERATORNAME__C","PROCESSINGMINUTE__C","STANDARDBILLCLAIM__C","NOTWORKCHECK__C","HOURLYRATE__C","BILLCLAIM__C","MONTHLYBUSINESSPROCESS__C","CLOSINGPROCESS__C","MASMIDDLESECTION__C","MASDETAILSECTION__C","ITLIST__C","OTHERPROCESS__C","SUPPORTMIDDLESECTION__C","SUPPORTDETAILSECTION__C","WORKNAME__C"
"a0528000007PBsvAAG","false","00000040","","2016-05-30T07:51:06.000Z","00528000003415aAAA","2016-06-01T04:51:48.000Z","00528000003415aAAA","2016-06-01T04:51:48.000Z","a012800000SnIsWAAV","","","false","00528000003NgckAAC","10.0","0.0","false","","10000.0","","","","","","","","",""
"a0528000006Z2i5AAC","false","テスト2報告","","2016-05-12T07:06:18.000Z","00528000003415aAAA","2016-05-12T07:06:18.000Z","00528000003415aAAA","2016-07-15T07:53:55.000Z","a012800000SVJTuAAP","","","false","","","0.0","false","","","","","","","","","","",""
"a0528000006Z2hqAAC","false","テスト報告","","2016-05-12T07:05:27.000Z","00528000003415aAAA","2016-07-06T05:24:07.000Z","00528000003415aAAA","2016-07-15T07:53:55.000Z","a012800000SVJTuAAP","2016-07-06","","false","00528000003dqwKAAQ","100.0","0.0","false","","16667.0","","","","","","","","",""
"a0528000006Z2pgAAC","false","1","","2016-05-12T07:25:41.000Z","00528000003415aAAA","2016-05-12T07:29:15.000Z","00528000003415aAAA","2016-07-15T07:53:55.000Z","a012800000SVKsaAAH","","","false","","","0.0","false","","","","","","","","","","",""
"a0528000007S1o2AAC","false","00000080","","2016-06-12T22:59:04.000Z","00528000003415aAAA","2016-06-12T23:01:00.000Z","00528000003415aAAA","2016-06-12T23:01:00.000Z","a012800000SnBEbAAN","2016-06-13","","false","00528000003kddLAAQ","350.0","0.0","false","","58334.0","工程開始","","","","","","","",""
"a0528000007S1oMAAS","false","00000081","","2016-06-12T23:04:09.000Z","00528000003415aAAA","2016-06-12T23:05:12.000Z","00528000003415aAAA","2016-06-12T23:05:12.000Z","a012800000Th4zfAAB","2016-06-13","","false","00528000003dqyVAAQ","300.0","0.0","false","","50000.0","入力(入力con)","","","","","","","",""
"a0528000007PQi2AAG","false","00000042","","2016-05-31T07:05:05.000Z","00528000003415aAAA","2016-06-01T04:52:03.000Z","00528000003415aAAA","2016-06-01T04:52:03.000Z","a012800000T2MP0AAN","","","false","00528000003NgckAAC","30.0","0.0","false","","500.0","","","","","","","","",""
"a0528000007PZ8DAAW","false","00000045","","2016-06-01T01:33:22.000Z","00528000003415aAAA","2016-06-10T00:33:26.000Z","00528000003415aAAA","2016-06-10T00:33:26.000Z","a012800000T2MQ2AAN","2016-06-01","","false","00528000003NgckAAC","30.0","0.0","false","","167.0","","","","","","","","",""
"a0528000007PZ8IAAW","false","00000046","","2016-06-01T01:33:36.000Z","00528000003415aAAA","2016-06-01T04:52:03.000Z","00528000003415aAAA","2016-06-01T04:52:04.000Z","a012800000T2MQ2AAN","","","false","00528000003NgckAAC","50.0","0.0","false","","834.0","","","","","","","","",""
"a0528000007PZ9aAAG","false","00000047","","2016-06-01T01:36:37.000Z","00528000003415aAAA","2016-06-01T04:52:03.000Z","00528000003415aAAA","2016-06-01T04:52:04.000Z","a012800000T2MFLAA3","","","false","00528000003NgckAAC","150.0","0.0","false","","2500.0","","","","","","","","",""
"a0528000007PZQeAAO","false","00000048","","2016-06-01T02:03:09.000Z","00528000003415aAAA","2016-06-01T04:51:12.000Z","00528000003415aAAA","2016-06-01T04:51:12.000Z","a012800000SnIsWAAV","","","false","00528000003NgckAAC","10.0","0.0","false","","167.0","","","","","","","","",""
"a0528000007PalyAAC","false","00000055","","2016-06-01T05:22:02.000Z","00528000003415aAAA","2016-06-01T05:22:03.000Z","00528000003415aAAA","2016-06-01T05:22:03.000Z","a012800000T2MH4AAN","2016-06-01","","false","00528000003NgckAAC","70.0","0.0","false","","1167.0","修正","","","","","","","",""
"a0528000007Pam8AAC","false","00000056","","2016-06-01T05:22:22.000Z","00528000003415aAAA","2016-06-01T05:22:22.000Z","00528000003415aAAA","2016-06-01T05:22:22.000Z","a012800000T2MH4AAN","2016-06-01","","false","00528000003NgckAAC","60.0","0.0","false","","1000.0","商品化","","","","","","","",""
"a0528000007PaljAAC","false","00000054","","2016-06-01T05:21:49.000Z","00528000003415aAAA","2016-06-01T05:21:49.000Z","00528000003415aAAA","2016-06-01T05:21:49.000Z","a012800000T2MH4AAN","2016-06-01","","false","00528000003NgckAAC","80.0","0.0","false","","1334.0","検品","","","","","","","",""
"a0528000007PamDAAS","false","00000057","","2016-06-01T05:22:38.000Z","00528000003415aAAA","2016-06-01T05:22:38.000Z","00528000003415aAAA","2016-06-01T05:22:38.000Z","a012800000T2MH4AAN","2016-06-01","","false","00528000003NgckAAC","50.0","0.0","false","","834.0","決裁","","","","","","","",""
"a0528000007PalFAAS","false","00000051","","2016-06-01T05:20:27.000Z","00528000003415aAAA","2016-06-01T05:20:38.000Z","00528000003415aAAA","2016-06-01T05:20:38.000Z","a012800000T2MH4AAN","2016-06-01","","false","00528000003NgckAAC","110.0","0.0","false","","1834.0","前さばき","","","","","","","",""
"a0528000007PakvAAC","false","00000049","","2016-06-01T05:19:32.000Z","00528000003415aAAA","2016-06-01T05:19:33.000Z","00528000003415aAAA","2016-06-01T05:19:33.000Z","a012800000T2MH4AAN","2016-06-01","","false","00528000003NgckAAC","130.0","0.0","false","","2167.0","工程開始","","","","","","","",""
"a0528000007PamIAAS","false","00000058","","2016-06-01T05:22:56.000Z","00528000003415aAAA","2016-06-01T05:22:56.000Z","00528000003415aAAA","2016-06-01T05:22:56.000Z","a012800000T2MH4AAN","2016-06-01","","false","00528000003NgckAAC","40.0","0.0","false","","667.0","納品","","","","","","","",""
"a0528000007PalKAAS","false","00000052","","2016-06-01T05:20:52.000Z","00528000003415aAAA","2016-06-01T05:21:11.000Z","00528000003415aAAA","2016-06-01T05:21:11.000Z","a012800000T2MH4AAN","2016-06-01","","false","00528000003NgckAAC","100.0","0.0","false","","1667.0","入力(入力con)","","","","","","","",""
"a0528000007Pal5AAC","false","00000050","","2016-06-01T05:20:11.000Z","00528000003415aAAA","2016-06-01T05:20:11.000Z","00528000003415aAAA","2016-06-01T05:20:11.000Z","a012800000T2MH4AAN","","","false","00528000003NgckAAC","120.0","0.0","false","","2000.0","資料回収","","","","","","","",""
"a0528000007PamSAAS","false","00000059","","2016-06-01T05:23:08.000Z","00528000003415aAAA","2016-06-01T05:23:08.000Z","00528000003415aAAA","2016-06-01T05:23:08.000Z","a012800000T2MH4AAN","","","false","00528000003NgckAAC","30.0","0.0","false","","500.0","最終確認","","","","","","","",""
"a0528000007PaleAAC","false","00000053","","2016-06-01T05:21:29.000Z","00528000003415aAAA","2016-06-01T05:21:29.000Z","00528000003415aAAA","2016-06-01T05:21:29.000Z","a012800000T2MH4AAN","2016-06-01","","false","00528000003NgckAAC","90.0","0.0","false","","1500.0","入力(入力)","","","","","","","",""
"a0528000007PcRsAAK","false","00000073","","2016-06-01T09:55:00.000Z","00528000003415aAAA","2016-06-10T00:51:11.000Z","00528000003415aAAA","2016-06-10T00:51:11.000Z","a012800000U3lzkAAB","2016-06-01","","false","00528000003NgckAAC","100.0","0.0","false","","0.0","","","","","","","","",""
"a0528000007PcItAAK","false","00000060","","2016-06-01T09:17:03.000Z","00528000003415aAAA","2016-06-01T09:17:03.000Z","00528000003415aAAA","2016-06-01T09:17:03.000Z","a012800000U3lOaAAJ","2016-06-01","","false","00528000003NgckAAC","300.0","0.0","false","","5000.0","工程開始","","","","","","","",""
"a0528000007PcKpAAK","false","00000069","","2016-06-01T09:23:42.000Z","00528000003415aAAA","2016-06-01T09:23:42.000Z","00528000003415aAAA","2016-06-01T09:23:42.000Z","a012800000U3lOaAAJ","2016-06-01","","true","00528000003NgckAAC","1000.0","0.0","false","","16667.0","納品","","","","","","","",""
"a0528000007PcK1AAK","false","00000064","","2016-06-01T09:21:34.000Z","00528000003415aAAA","2016-06-01T09:21:35.000Z","00528000003415aAAA","2016-06-01T09:21:35.000Z","a012800000U3lOaAAJ","2016-06-01","","true","00528000003NgckAAC","300.0","0.0","false","","5000.0","入力(入力)","","","","","","","",""
"a0528000007PcKzAAK","false","00000070","","2016-06-01T09:24:24.000Z","00528000003415aAAA","2016-06-01T09:24:24.000Z","00528000003415aAAA","2016-06-01T09:24:24.000Z","a012800000U3lOaAAJ","2016-06-01","","true","00528000003NgckAAC","900.0","0.0","false","","15000.0","最終確認","","","","","","","",""
"a0528000007PcKaAAK","false","00000067","","2016-06-01T09:23:02.000Z","00528000003415aAAA","2016-06-01T09:23:02.000Z","00528000003415aAAA","2016-06-01T09:23:02.000Z","a012800000U3lOaAAJ","2016-06-01","","false","00528000003NgckAAC","230.0","0.0","false","","3834.0","商品化","","","","","","","",""
"a0528000007PcKkAAK","false","00000068","","2016-06-01T09:23:24.000Z","00528000003415aAAA","2016-06-01T09:23:24.000Z","00528000003415aAAA","2016-06-01T09:23:24.000Z","a012800000U3lOaAAJ","2016-06-01","","true","00528000003NgckAAC","600.0","0.0","false","","10000.0","決裁","","","","","","","",""
"a0528000007PcLEAA0","false","00000072","","2016-06-01T09:25:16.000Z","00528000003415aAAA","2016-06-01T09:25:16.000Z","00528000003415aAAA","2016-06-01T09:25:16.000Z","a012800000U3lOaAAJ","2016-06-01","","false","00528000003415aAAA","1000.0","0.0","false","","16667.0","最終確認","","","","","","","",""
"a0528000007PcJrAAK","false","00000062","","2016-06-01T09:20:51.000Z","00528000003415aAAA","2016-06-01T09:20:51.000Z","00528000003415aAAA","2016-06-01T09:20:51.000Z","a012800000U3lOaAAJ","2016-06-01","","true","00528000003NgckAAC","700.0","0.0","false","","11667.0","前さばき","","","","","","","",""
"a0528000007PcJhAAK","false","00000061","","2016-06-01T09:20:32.000Z","00528000003415aAAA","2016-06-01T09:20:32.000Z","00528000003415aAAA","2016-06-01T09:20:32.000Z","a012800000U3lOaAAJ","2016-06-01","","false","00528000003NgckAAC","500.0","0.0","false","","8334.0","資料回収","","","","","","","",""
"a0528000007PcJwAAK","false","00000063","","2016-06-01T09:21:08.000Z","00528000003415aAAA","2016-06-01T09:21:08.000Z","00528000003415aAAA","2016-06-01T09:21:08.000Z","a012800000U3lOaAAJ","2016-06-01","","false","00528000003NgckAAC","890.0","0.0","false","","14834.0","入力(入力con)","","","","","","","",""
"a0528000007PcKLAA0","false","00000066","","2016-06-01T09:22:36.000Z","00528000003415aAAA","2016-06-01T09:22:37.000Z","00528000003415aAAA","2016-06-01T09:22:37.000Z","a012800000U3lOaAAJ","2016-06-01","","true","00528000003NgckAAC","450.0","0.0","false","","7500.0","修正","","","","","","","",""
"a0528000007PcKBAA0","false","00000065","","2016-06-01T09:21:57.000Z","00528000003415aAAA","2016-06-01T09:21:57.000Z","00528000003415aAAA","2016-06-01T09:21:57.000Z","a012800000U3lOaAAJ","2016-06-01","","false","00528000003NgckAAC","120.0","0.0","false","","2000.0","検品","","","","","","","",""
"a0528000007PcL4AAK","false","00000071","","2016-06-01T09:24:41.000Z","00528000003415aAAA","2016-06-01T09:24:41.000Z","00528000003415aAAA","2016-06-01T09:24:41.000Z","a012800000U3lOaAAJ","2016-06-01","","false","00528000003NgckAAC","1000.0","0.0","false","","16667.0","最終確認","","","","","","","",""
"a0528000007PcaoAAC","false","00000075","","2016-06-01T10:35:32.000Z","00528000003415aAAA","2016-06-01T10:35:32.000Z","00528000003415aAAA","2016-06-01T10:35:32.000Z","a012800000U3lqUAAR","2016-06-01","","true","00528000003NgckAAC","360.0","0.0","false","","6000.0","","","","","","","","",""
"a0528000007PcatAAC","false","00000076","","2016-06-01T10:35:59.000Z","00528000003415aAAA","2016-06-01T10:36:00.000Z","00528000003415aAAA","2016-06-01T10:36:00.000Z","a012800000U3lqUAAR","2016-06-01","","true","00528000003NgckAAC","300.0","0.0","false","","5000.0","","","","","","","","",""
"a0528000006oFMVAA2","false","作業報告","","2016-05-16T08:53:30.000Z","00528000003415aAAA","2016-05-16T08:53:30.000Z","00528000003415aAAA","2016-07-15T07:53:55.000Z","a012800000SnBFhAAN","","","false","","","0.0","false","","","","","","","","","","",""
"a0528000006oFRbAAM","false","作業報告","","2016-05-16T09:01:29.000Z","00528000003415aAAA","2016-06-12T23:08:03.000Z","00528000003415aAAA","2016-07-15T07:53:55.000Z","a012800000SnBgyAAF","2016-06-10","","false","00528000003NgckAAC","1200.0","0.0","false","","20000.0","","","","","","","","",""
"a0528000006oFB8AAM","false","作業報告","","2016-05-16T08:30:48.000Z","00528000003415aAAA","2016-05-16T08:30:48.000Z","00528000003415aAAA","2016-07-15T07:53:55.000Z","a012800000SnBkSAAV","","","false","","","0.0","false","","","","","","","","","","",""
"a0528000006oFWqAAM","false","00000002","","2016-05-16T09:09:14.000Z","00528000003415aAAA","2016-05-16T09:09:14.000Z","00528000003415aAAA","2016-07-15T07:53:55.000Z","a012800000Sn8CHAAZ","","テスト","false","","","0.0","false","","","","","","","","","","",""
"a0528000006oFUQAA2","false","00000001","","2016-05-16T09:07:16.000Z","00528000003415aAAA","2016-05-16T09:07:16.000Z","00528000003415aAAA","2016-07-15T07:53:55.000Z","a012800000SnAjjAAF","","テスト","false","","","0.0","false","","","","","","","","","","",""
"a0528000006oFJMAA2","false","作業報告","","2016-05-16T08:48:30.000Z","00528000003415aAAA","2016-05-16T08:48:30.000Z","00528000003415aAAA","2016-07-15T07:53:55.000Z","a012800000Sn9CIAAZ","","","false","","","0.0","false","","","","","","","","","","",""
"a0528000006oFAeAAM","false","作業報告","","2016-05-16T08:30:00.000Z","00528000003415aAAA","2016-05-26T09:14:27.000Z","00528000003415aAAA","2016-07-15T07:53:55.000Z","a012800000SnBkSAAV","","経費","false","","10.0","0.0","false","","","","","","","","","","",""
"a0528000006oFS0AAM","false","作業報告","","2016-05-16T09:02:13.000Z","00528000003415aAAA","2016-05-16T09:02:13.000Z","00528000003415aAAA","2016-07-15T07:53:55.000Z","a012800000SnIsWAAV","","","false","","","0.0","false","","","","","","","","","","",""
"a0528000006oQVGAA2","false","00000005","","2016-05-17T07:49:23.000Z","00528000003NgckAAC","2016-05-17T07:49:23.000Z","00528000003NgckAAC","2016-07-15T07:53:55.000Z","a012800000T2MRnAAN","","","true","","","0.0","false","","","","","","","","","","",""
"a0528000006oQONAA2","false","00000003","","2016-05-17T07:37:13.000Z","00528000003NgckAAC","2016-05-17T07:37:13.000Z","00528000003NgckAAC","2016-07-15T07:53:55.000Z","a012800000T2MH4AAN","","テスト","true","","","0.0","false","","","","","","","","","","",""
"a0528000007T9uWAAS","false","00000031","012280000003aakAAA","2016-06-20T04:51:07.000Z","00528000003415aAAA","2016-06-20T04:51:07.000Z","00528000003415aAAA","2016-06-20T04:51:07.000Z","a012800000T2MHwAAN","2016-06-20","","false","00528000003dqyVAAQ","200.0","0.0","false","","33334.0","","","","","","","事前","会議資料作成",""
"a0528000006WAQBAA4","false","00000014","","2016-05-27T06:13:56.000Z","00528000003415aAAA","2016-06-01T04:51:12.000Z","00528000003415aAAA","2016-07-15T07:53:55.000Z","a012800000SnIsWAAV","2016-05-30","","false","00528000003NgckAAC","29.0","0.0","false","","0.0","","","","","","","","",""
"a0528000006WCL9AAO","false","00000023","","2016-05-27T08:46:48.000Z","00528000003415aAAA","2016-06-01T04:51:12.000Z","00528000003415aAAA","2016-06-01T04:51:12.000Z","a012800000SnIsWAAV","","","false","00528000003415aAAA","10.0","0.0","false","","10000.0","","","","","","","","",""
"a0528000006WBzaAAG","false","00000020","","2016-05-27T08:14:43.000Z","00528000003415aAAA","2016-06-01T04:51:21.000Z","00528000003415aAAA","2016-07-15T07:53:55.000Z","a012800000SnIsWAAV","2016-05-30","","false","00528000003415aAAA","","0.0","false","","","","","","","","","","",""
"a0528000006WDxKAAW","false","00000034","","2016-05-27T12:43:00.000Z","00528000003NgckAAC","2016-06-01T04:51:39.000Z","00528000003415aAAA","2016-06-01T04:51:39.000Z","a012800000SnIsWAAV","","","false","00528000003NgckAAC","15.0","0.0","false","","15000.0","","","","","","","","",""
"a0528000006WCvRAAW","false","00000026","","2016-05-27T09:46:47.000Z","00528000003415aAAA","2016-06-01T04:52:03.000Z","00528000003415aAAA","2016-06-01T04:52:03.000Z","a012800000SnBkSAAV","","","false","00528000003NgckAAC","10.0","0.0","false","","10000.0","","","","","","","","",""
"a0528000006WCBDAA4","false","00000021","","2016-05-27T08:23:14.000Z","00528000003415aAAA","2016-06-01T04:51:25.000Z","00528000003415aAAA","2016-07-15T07:53:55.000Z","a012800000SnIsWAAV","","","false","00528000003415aAAA","","0.0","false","","10000.0","","","","","","","","",""
"a0528000006WDG8AAO","false","00000027","","2016-05-27T10:31:14.000Z","00528000003415aAAA","2016-06-01T04:52:03.000Z","00528000003415aAAA","2016-06-01T04:52:03.000Z","a012800000SnBkSAAV","","","false","00528000003NgckAAC","10.0","0.0","false","","10000.0","","","","","","","","",""
"a0528000006WDwgAAG","false","00000031","","2016-05-27T12:41:10.000Z","00528000003NgckAAC","2016-06-01T04:51:48.000Z","00528000003415aAAA","2016-06-01T04:51:48.000Z","a012800000SnIsWAAV","","","false","00528000003NgckAAC","30.0","0.0","false","","30000.0","","","","","","","","",""
"a0528000006W7i7AAC","false","00000011","","2016-05-27T02:37:43.000Z","00528000003415aAAA","2016-06-01T04:52:03.000Z","00528000003415aAAA","2016-07-15T07:53:55.000Z","a012800000SnBkSAAV","","","false","00528000003NgckAAC","10.0","0.0","false","","10000.0","","","","","","","","",""
"a0528000006WDwlAAG","false","00000032","","2016-05-27T12:42:02.000Z","00528000003NgckAAC","2016-06-01T04:51:48.000Z","00528000003415aAAA","2016-06-01T04:51:48.000Z","a012800000SnIsWAAV","","","false","00528000003NgckAAC","30.0","0.0","false","","30000.0","","","","","","","","",""
"a0528000006WDwvAAG","false","00000033","","2016-05-27T12:42:23.000Z","00528000003NgckAAC","2016-06-01T04:51:43.000Z","00528000003415aAAA","2016-06-01T04:51:43.000Z","a012800000SnIsWAAV","","","false","00528000003NgckAAC","30.0","0.0","false","","30000.0","","","","","","","","",""
"a0528000006WDw2AAG","false","00000029","","2016-05-27T12:39:48.000Z","00528000003NgckAAC","2016-06-01T04:51:55.000Z","00528000003415aAAA","2016-06-01T04:51:55.000Z","a012800000SnIsWAAV","","","false","00528000003NgckAAC","30.0","0.0","false","","30000.0","","","","","","","","",""
"a0528000006oZUMAA2","false","00000006","","2016-05-18T01:27:53.000Z","00528000003415aAAA","2016-05-18T01:27:53.000Z","00528000003415aAAA","2016-07-15T07:53:55.000Z","a012800000SnBEbAAN","","特に無し","true","","","0.0","false","","","","","","","","","","",""
"a0528000006VzAPAA0","false","00000008","","2016-05-26T09:07:20.000Z","00528000003415aAAA","2016-06-01T04:51:12.000Z","00528000003415aAAA","2016-07-15T07:53:55.000Z","a012800000SnBkSAAV","","","false","00528000003415aAAA","12.0","0.0","false","","2000.0","","","","","","","","",""
"a0528000006VzkOAAS","false","00000009","","2016-05-26T09:35:48.000Z","00528000003415aAAA","2016-06-12T22:26:19.000Z","00528000003415aAAA","2016-07-15T07:53:55.000Z","a012800000SnIsWAAV","2016-05-18","","true","00528000003NgckAAC","150.0","0.0","false","","2500.0","工程開始","","","","","","","",""
"a0528000006VwPaAAK","false","00000007","","2016-05-26T08:58:58.000Z","00528000003415aAAA","2016-06-13T03:07:31.000Z","00528000003415aAAA","2016-07-15T07:53:55.000Z","a012800000SnBkSAAV","","","false","00528000003415aAAA","10.0","0.0","false","","834.0","","","","","","","","",""
"a0528000006WCb1AAG","false","00000025","","2016-05-27T09:19:27.000Z","00528000003415aAAA","2016-06-01T04:51:43.000Z","00528000003415aAAA","2016-06-01T04:51:43.000Z","a012800000SnIsWAAV","","","false","00528000003NgckAAC","10.0","0.0","false","","10000.0","","","","","","","","",""
"a0528000006WCDTAA4","false","00000022","","2016-05-27T08:26:48.000Z","00528000003415aAAA","2016-06-01T04:51:43.000Z","00528000003415aAAA","2016-07-15T07:53:55.000Z","a012800000SnIsWAAV","","","false","00528000003415aAAA","","0.0","false","","2000.0","","","","","","","","",""
"a0528000006WBzGAAW","false","00000019","","2016-05-27T08:14:23.000Z","00528000003415aAAA","2016-06-13T07:48:37.000Z","00528000003415aAAA","2016-07-15T07:53:55.000Z","a012800000SnIsWAAV","2016-06-13","","false","00528000003415aAAA","533.0","0.0","false","","44417.0","最終確認","","","","","","","",""
"a0528000006WDwbAAG","false","00000030","","2016-05-27T12:40:45.000Z","00528000003NgckAAC","2016-06-01T04:51:52.000Z","00528000003415aAAA","2016-06-01T04:51:52.000Z","a012800000SnIsWAAV","","","false","00528000003NgckAAC","30.0","0.0","false","","30000.0","","","","","","","","",""
"a0528000006WBx9AAG","false","00000018","","2016-05-27T08:10:57.000Z","00528000003415aAAA","2016-06-01T04:51:12.000Z","00528000003415aAAA","2016-07-15T07:53:55.000Z","a012800000SnIsWAAV","","","false","00528000003415aAAA","","0.0","false","","","","","","","","","","",""
"a0528000006WCLrAAO","false","00000024","","2016-05-27T08:47:52.000Z","00528000003415aAAA","2016-06-01T04:51:12.000Z","00528000003415aAAA","2016-06-01T04:51:12.000Z","a012800000TeOXdAAN","","","false","00528000003415aAAA","10.0","0.0","false","","10000.0","","","","","","","","",""
"a0528000006WDxZAAW","false","00000035","","2016-05-27T12:43:43.000Z","00528000003NgckAAC","2016-06-01T04:51:35.000Z","00528000003415aAAA","2016-06-01T04:51:35.000Z","a012800000SnIsWAAV","","","false","00528000003NgckAAC","15.0","0.0","false","","15000.0","","","","","","","","",""
"a0528000006WDxjAAG","false","00000036","","2016-05-27T12:44:03.000Z","00528000003NgckAAC","2016-06-01T04:51:30.000Z","00528000003415aAAA","2016-06-01T04:51:30.000Z","a012800000SnIsWAAV","","","false","00528000003NgckAAC","15.0","0.0","false","","15000.0","","","","","","","","",""
"a0528000006WApCAAW","false","00000015","","2016-05-27T06:50:28.000Z","00528000003415aAAA","2016-06-01T04:52:03.000Z","00528000003415aAAA","2016-06-01T04:52:03.000Z","a012800000SnBkSAAV","","","false","00528000003NgckAAC","10.0","0.0","false","","","","","","","","","","",""
"a0528000006WB0PAAW","false","00000016","","2016-05-27T07:06:57.000Z","00528000003415aAAA","2016-06-01T04:51:12.000Z","00528000003415aAAA","2016-07-15T07:53:55.000Z","a012800000SnIsWAAV","2016-05-30","","false","00528000003NgckAAC","5.0","0.0","false","","5000.0","","","","","","","","",""
"a0528000006WDxtAAG","false","00000037","","2016-05-27T12:44:23.000Z","00528000003NgckAAC","2016-06-01T04:51:21.000Z","00528000003415aAAA","2016-06-01T04:51:21.000Z","a012800000SnIsWAAV","","","false","00528000003NgckAAC","15.0","0.0","false","","15000.0","","","","","","","","",""
"a0528000006W6ymAAC","false","00000010","","2016-05-27T01:36:41.000Z","00528000003415aAAA","2016-06-01T04:51:12.000Z","00528000003415aAAA","2016-06-01T04:51:12.000Z","a012800000SnBkSAAV","","","false","","","0.0","false","","","","","","","","","","",""
"a0528000006WBwLAAW","false","00000017","","2016-05-27T08:10:19.000Z","00528000003415aAAA","2016-06-01T04:52:03.000Z","00528000003415aAAA","2016-06-01T04:52:03.000Z","a012800000SnIsWAAV","","","false","00528000003415aAAA","10.0","0.0","false","","10000.0","","","","","","","","",""
"a0528000006WDSJAA4","false","00000028","","2016-05-27T10:52:13.000Z","00528000003415aAAA","2016-06-01T04:51:59.000Z","00528000003415aAAA","2016-06-01T04:51:59.000Z","a012800000SnIsWAAV","","","false","00528000003NgckAAC","10.0","0.0","false","","10000.0","","","","","","","","",""
"a0528000006W9YbAAK","false","00000013","","2016-05-27T05:15:26.000Z","00528000003415aAAA","2016-06-27T04:25:30.000Z","00528000003415aAAA","2016-07-15T07:53:55.000Z","a012800000SnIsWAAV","2016-05-30","","false","00528000003NgckAAC","10.0","0.0","false","","1667.0","前さばき","","","","","","","",""
"a0528000006WDyNAAW","false","00000038","","2016-05-27T12:44:45.000Z","00528000003NgckAAC","2016-06-01T04:51:25.000Z","00528000003415aAAA","2016-06-01T04:51:25.000Z","a012800000SnIsWAAV","","","false","00528000003NgckAAC","15.0","0.0","false","","15000.0","","","","","","","","",""
"a0528000007RZWXAA4","false","00000079","","2016-06-10T07:00:05.000Z","00528000003415aAAA","2016-06-12T23:07:46.000Z","00528000003415aAAA","2016-06-12T23:07:46.000Z","a012800000SnBgyAAF","2016-06-10","","false","00528000003dqwKAAQ","532.0","0.0","false","","88667.0","","","","","","","","",""
"a0528000007RZW8AAO","false","00000078","","2016-06-10T06:59:35.000Z","00528000003415aAAA","2016-06-10T06:59:36.000Z","00528000003415aAAA","2016-06-10T06:59:36.000Z","a012800000SnBgyAAF","2016-06-10","","false","00528000003415aAAA","120.0","0.0","false","","2000.0","","","","","","","","",""
"a0528000007RUlMAAW","false","00000077","","2016-06-10T00:58:28.000Z","00528000003415aAAA","2016-06-10T01:09:23.000Z","00528000003415aAAA","2016-06-10T01:09:23.000Z","a012800000Th4zfAAB","","","false","00528000003NgckAAC","30.0","0.0","false","","500.0","","","","","","","","",""
"a0528000007S5raAAC","false","00000005","012280000003aaEAAQ","2016-06-13T10:24:37.000Z","00528000003415aAAA","2016-06-13T10:24:38.000Z","00528000003415aAAA","2016-06-13T10:24:38.000Z","a012800000U3lz7AAB","2016-06-13","","false","00528000003415aAAA","60.0","0.0","false","","5000.0","","","","","","","","",""
"a0528000007S5SMAA0","false","00000003","012280000003aZtAAI","2016-06-13T08:49:43.000Z","00528000003415aAAA","2016-06-27T04:17:41.000Z","00528000003415aAAA","2016-06-27T04:17:41.000Z","a012800000UtaUjAAJ","","","false","00528000003dqwKAAQ","100.0","0.0","false","","16667.0","","申告決算修正・申告書作成","","","","","","",""
"a0528000007S5U8AAK","false","00000004","012280000003aaOAAQ","2016-06-13T08:57:15.000Z","00528000003415aAAA","2016-06-13T08:57:15.000Z","00528000003415aAAA","2016-06-13T08:57:15.000Z","a012800000UtnkPAAR","2016-06-13","","false","00528000003kddLAAQ","60.0","0.0","false","","10000.0","","","月次サービス","資料作成","","","","",""
"a0528000007S5QpAAK","false","00000002","012280000003aaOAAQ","2016-06-13T08:45:09.000Z","00528000003415aAAA","2016-06-13T08:45:09.000Z","00528000003415aAAA","2016-06-13T08:45:09.000Z","a012800000Sn9fHAAR","2016-06-13","","false","00528000003dqqEAAQ","500.0","0.0","false","","0.0","","","財務分析","5ヶ年分析","","","","",""
"a0528000007S26zAAC","false","00000082","","2016-06-13T00:42:54.000Z","00528000003415aAAA","2016-06-13T00:42:54.000Z","00528000003415aAAA","2016-06-13T00:42:54.000Z","a012800000SnIsWAAV","2016-06-13","","false","00528000003dqwKAAQ","60.0","0.0","false","","10000.0","工程開始","","","","","","","",""
"a0528000007S4xWAAS","false","00000001","012280000003aZoAAI","2016-06-13T07:31:17.000Z","00528000003415aAAA","2016-06-13T07:31:17.000Z","00528000003415aAAA","2016-06-13T07:31:17.000Z","a012800000SnIsWAAV","","","false","00528000003dqwKAAQ","","0.0","false","","0.0","工程開始","","","","","","","",""
"a0528000007S27dAAC","false","00000083","","2016-06-13T00:44:27.000Z","00528000003415aAAA","2016-06-13T00:44:27.000Z","00528000003415aAAA","2016-06-13T00:44:27.000Z","a012800000SnIsWAAV","2016-06-12","","false","00528000003kdfMAAQ","120.0","0.0","false","","0.0","資料回収","","","","","","","",""
"a0528000007STj3AAG","false","00000028","012280000003aauAAA","2016-06-15T10:24:03.000Z","00528000003415aAAA","2016-06-15T10:24:03.000Z","00528000003415aAAA","2016-06-15T10:24:03.000Z","a012800000Uvga7AAB","2016-06-15","","false","00528000003dqyVAAQ","120.0","0.0","false","","20000.0","","","","","","","","",""
"a0528000007STiFAAW","false","00000027","012280000003aaOAAQ","2016-06-15T10:20:30.000Z","00528000003415aAAA","2016-06-15T10:20:30.000Z","00528000003415aAAA","2016-06-15T10:20:30.000Z","a012800000U3nCtAAJ","2016-06-15","","false","00528000003dqwKAAQ","60.0","0.0","false","","10000.0","","","財務分析","5ヶ年分析","","","","",""
"a0528000008GCmxAAG","false","00000067","012280000003aaEAAQ","2016-06-27T07:47:55.000Z","00528000003415aAAA","2016-06-27T07:47:55.000Z","00528000003415aAAA","2016-06-27T07:47:55.000Z","a012800000UvdEoAAJ","2016-06-27","","false","00528000003415aAAA","600.0","0.0","false","","100000.0","","","","","社内作業","","","","商品説明ページ作成"
"a0528000008GCNxAAO","false","00000050","012280000003aZtAAI","2016-06-27T07:27:18.000Z","00528000003415aAAA","2016-06-27T07:28:15.000Z","00528000003415aAAA","2016-07-19T13:50:09.000Z","a012800000W7T0HAAV","2016-06-27","","false","00528000003kddLAAQ","120.0","0.0","false","","0.0","","税額予測作成・届出検討欄","","","","","","",""
"a0528000008GCNyAAO","false","00000051","012280000003aZtAAI","2016-06-27T07:27:19.000Z","00528000003415aAAA","2016-06-27T07:29:23.000Z","00528000003415aAAA","2016-06-27T07:29:23.000Z","a012800000W7T0HAAV","2016-06-30","","false","00528000003dqxZAAQ","60.0","0.0","false","","0.0","","決算申告資料収集","","","","","","",""
"a0528000008GCNzAAO","false","00000052","012280000003aZtAAI","2016-06-27T07:27:19.000Z","00528000003415aAAA","2016-06-27T07:27:19.000Z","00528000003415aAAA","2016-07-19T13:50:09.000Z","a012800000W7T0HAAV","","","false","","","0.0","false","","0.0","","棚卸資産・負債証明書受領","","","","","","",""
"a0528000008GCO0AAO","false","00000053","012280000003aZtAAI","2016-06-27T07:27:19.000Z","00528000003415aAAA","2016-06-27T07:27:19.000Z","00528000003415aAAA","2016-06-27T07:27:19.000Z","a012800000W7T0HAAV","","","false","","","0.0","false","","0.0","","前さばき","","","","","","",""
"a0528000008GCO1AAO","false","00000054","012280000003aZtAAI","2016-06-27T07:27:19.000Z","00528000003415aAAA","2016-06-27T07:27:19.000Z","00528000003415aAAA","2016-06-27T07:27:19.000Z","a012800000W7T0HAAV","","","false","","","0.0","false","","0.0","","入力","","","","","","",""
"a0528000008GCO2AAO","false","00000055","012280000003aZtAAI","2016-06-27T07:27:19.000Z","00528000003415aAAA","2016-06-27T07:27:19.000Z","00528000003415aAAA","2016-06-27T07:27:19.000Z","a012800000W7T0HAAV","","","false","","","0.0","false","","0.0","","消費税申告書作成","","","","","","",""
"a0528000008GCO3AAO","false","00000056","012280000003aZtAAI","2016-06-27T07:27:19.000Z","00528000003415aAAA","2016-06-27T07:27:19.000Z","00528000003415aAAA","2016-06-27T07:27:19.000Z","a012800000W7T0HAAV","","","false","","","0.0","false","","0.0","","内訳書概況書作成","","","","","","",""
"a0528000008GCO4AAO","false","00000057","012280000003aZtAAI","2016-06-27T07:27:19.000Z","00528000003415aAAA","2016-06-27T07:27:19.000Z","00528000003415aAAA","2016-06-27T07:27:19.000Z","a012800000W7T0HAAV","","","false","","","0.0","false","","0.0","","一次納品","","","","","","",""
"a0528000008GCO5AAO","false","00000058","012280000003aZtAAI","2016-06-27T07:27:19.000Z","00528000003415aAAA","2016-06-27T07:27:19.000Z","00528000003415aAAA","2016-06-27T07:27:19.000Z","a012800000W7T0HAAV","","","false","","","0.0","false","","0.0","","修正","","","","","","",""
"a0528000008GCO6AAO","false","00000059","012280000003aZtAAI","2016-06-27T07:27:19.000Z","00528000003415aAAA","2016-06-27T07:27:19.000Z","00528000003415aAAA","2016-06-27T07:27:19.000Z","a012800000W7T0HAAV","","","false","","","0.0","false","","0.0","","申告決算修正・申告書作成","","","","","","",""
"a0528000008GCO7AAO","false","00000060","012280000003aZtAAI","2016-06-27T07:27:19.000Z","00528000003415aAAA","2016-06-27T07:27:20.000Z","00528000003415aAAA","2016-06-27T07:27:20.000Z","a012800000W7T0HAAV","","","false","","","0.0","false","","0.0","","会計指針チェックリスト作成","","","","","","",""
"a0528000008GCO8AAO","false","00000061","012280000003aZtAAI","2016-06-27T07:27:20.000Z","00528000003415aAAA","2016-06-27T07:27:20.000Z","00528000003415aAAA","2016-06-27T07:27:20.000Z","a012800000W7T0HAAV","","","false","","","0.0","false","","0.0","","二次納品","","","","","","",""
"a0528000008GCO9AAO","false","00000062","012280000003aZtAAI","2016-06-27T07:27:20.000Z","00528000003415aAAA","2016-06-27T07:27:20.000Z","00528000003415aAAA","2016-06-27T07:27:20.000Z","a012800000W7T0HAAV","","","false","","","0.0","false","","0.0","","承認","","","","","","",""
"a0528000008GCOAAA4","false","00000063","012280000003aZtAAI","2016-06-27T07:27:20.000Z","00528000003415aAAA","2016-06-27T07:27:20.000Z","00528000003415aAAA","2016-06-27T07:27:20.000Z","a012800000W7T0HAAV","","","false","","","0.0","false","","0.0","","申告","","","","","","",""
"a0528000008GCOBAA4","false","00000064","012280000003aZtAAI","2016-06-27T07:27:20.000Z","00528000003415aAAA","2016-06-27T07:27:20.000Z","00528000003415aAAA","2016-06-27T07:27:20.000Z","a012800000W7T0HAAV","","","false","","","0.0","false","","0.0","","議事録作成","","","","","","",""
"a0528000008GCOHAA4","false","00000065","012280000003aZtAAI","2016-06-27T07:27:20.000Z","00528000003415aAAA","2016-06-27T07:27:20.000Z","00528000003415aAAA","2016-06-27T07:27:20.000Z","a012800000W7T0HAAV","","","false","","","0.0","false","","0.0","","商品化","","","","","","",""
"a0528000008GCOIAA4","false","00000066","012280000003aZtAAI","2016-06-27T07:27:20.000Z","00528000003415aAAA","2016-06-27T07:27:20.000Z","00528000003415aAAA","2016-06-27T07:27:20.000Z","a012800000W7T0HAAV","","","false","","","0.0","false","","0.0","","最終確認","","","","","","",""
"a0528000007SDTOAA4","false","00000012","012280000003aZtAAI","2016-06-14T04:17:27.000Z","00528000003415aAAA","2016-06-14T04:17:27.000Z","00528000003415aAAA","2016-06-14T04:17:27.000Z","a012800000UtaUjAAJ","2016-01-02","","true","00528000003dqwKAAQ","120.0","0.0","false","","20000.0","","税額予測作成・届出検討欄","","","","","","",""
"a0528000007SDa0AAG","false","00000015","012280000003aaOAAQ","2016-06-14T04:38:02.000Z","00528000003415aAAA","2016-06-14T04:38:02.000Z","00528000003415aAAA","2016-06-14T04:38:02.000Z","a012800000UtnkPAAR","","","false","00528000003dqqEAAQ","321.0","0.0","false","","0.0","","","財務分析","5ヶ年分析","","","","",""
"a0528000007SDPqAAO","false","00000010","012280000003aZoAAI","2016-06-14T04:06:26.000Z","00528000003415aAAA","2016-06-14T04:06:27.000Z","00528000003415aAAA","2016-06-14T04:06:27.000Z","a012800000U3lOaAAJ","","","false","00528000003dqwKAAQ","100.0","0.0","false","","16667.0","商品化","","","","","","","",""
"a0528000007SDR8AAO","false","00000011","012280000003aZoAAI","2016-06-14T04:10:02.000Z","00528000003415aAAA","2016-06-14T04:11:12.000Z","00528000003415aAAA","2016-06-14T04:11:12.000Z","a012800000U3lOaAAJ","2016-01-01","あいうお","true","00528000003415aAAA","50.0","0.0","false","","4167.0","納品","","","","","","","",""
"a0528000007SDYsAAO","false","00000014","012280000003aaJAAQ","2016-06-14T04:33:16.000Z","00528000003415aAAA","2016-06-14T04:33:16.000Z","00528000003415aAAA","2016-06-14T04:33:16.000Z","a012800000U3lzkAAB","2016-01-01","","false","00528000003dqwKAAQ","200.0","0.0","false","","33334.0","","","","","","","","",""
"a0528000007SDX6AAO","false","00000013","012280000003aaEAAQ","2016-06-14T04:28:25.000Z","00528000003415aAAA","2016-06-14T04:28:25.000Z","00528000003415aAAA","2016-06-14T04:28:25.000Z","a012800000T2MPsAAN","2016-12-31","","true","00528000003415aAAA","30.0","0.0","false","","2500.0","","","","","メール","","","",""
"a0528000007SRgtAAG","false","00000024","012280000003aauAAA","2016-06-15T07:10:06.000Z","00528000003415aAAA","2016-06-15T07:10:06.000Z","00528000003415aAAA","2016-06-15T07:10:06.000Z","a012800000UvdCzAAJ","2016-06-15","","false","00528000003dtMlAAI","60.0","0.0","false","","0.0","","","","","","","","",""
"a0528000007SRZ4AAO","false","00000023","012280000003aaOAAQ","2016-06-15T06:45:12.000Z","00528000003415aAAA","2016-06-15T07:11:35.000Z","00528000003415aAAA","2016-06-15T07:11:35.000Z","a012800000T2OZbAAN","","","false","00528000003dqqEAAQ","60.0","0.0","false","","0.0","","","月次サービス","資料作成","","","","",""
"a0528000007SRi8AAG","false","00000025","012280000003aaEAAQ","2016-06-15T07:13:42.000Z","00528000003415aAAA","2016-06-22T05:08:50.000Z","00528000003415aAAA","2016-06-22T05:08:50.000Z","a012800000UvdEoAAJ","2016-06-15","","false","00528000003415aAAA","120.0","0.0","false","","20000.0","","","","","社内作業","","","",""
"a0528000007SaOAAA0","false","00000030","012280000003aaEAAQ","2016-06-16T03:48:34.000Z","00528000003415aAAA","2016-06-16T03:48:34.000Z","00528000003415aAAA","2016-06-16T03:48:34.000Z","a012800000T2MPsAAN","2016-06-16","","false","00528000003415aAAA","60.0","0.0","false","","5000.0","","","","","社内作業","","","","資料作成"
"a0528000007SZN7AAO","false","00000029","012280000003aauAAA","2016-06-16T00:52:32.000Z","00528000003415aAAA","2016-06-16T00:52:32.000Z","00528000003415aAAA","2016-06-16T00:52:32.000Z","a012800000SVC1jAAH","","","false","00528000003dqwKAAQ","","0.0","false","","0.0","","","","","","","","",""
"a0528000008hLbBAAU","false","00000073","012280000003aZtAAI","2016-07-06T06:29:14.000Z","00528000003415aAAA","2016-07-06T06:29:58.000Z","00528000003415aAAA","2016-07-06T06:29:58.000Z","a012800000WkqnjAAB","","","false","00528000003kddLAAQ","1000.0","166667.0","false","10000.0","0.0","","税額予測作成・届出検討欄","","","","","","",""
"a0528000008hLbCAAU","false","00000074","012280000003aZtAAI","2016-07-06T06:29:14.000Z","00528000003415aAAA","2016-07-06T06:29:14.000Z","00528000003415aAAA","2016-07-06T06:29:14.000Z","a012800000WkqnjAAB","","","false","","","0.0","false","10000.0","0.0","","決算申告資料収集","","","","","","",""
"a0528000008hLbDAAU","false","00000075","012280000003aZtAAI","2016-07-06T06:29:14.000Z","00528000003415aAAA","2016-07-06T06:29:14.000Z","00528000003415aAAA","2016-07-06T06:29:14.000Z","a012800000WkqnjAAB","","","false","","","0.0","false","10000.0","0.0","","棚卸資産・負債証明書受領","","","","","","",""
"a0528000008hLbEAAU","false","00000076","012280000003aZtAAI","2016-07-06T06:29:14.000Z","00528000003415aAAA","2016-07-06T06:29:14.000Z","00528000003415aAAA","2016-07-06T06:29:14.000Z","a012800000WkqnjAAB","","","false","","","0.0","false","10000.0","0.0","","前さばき","","","","","","",""
"a0528000008hLbFAAU","false","00000077","012280000003aZtAAI","2016-07-06T06:29:14.000Z","00528000003415aAAA","2016-07-06T06:29:14.000Z","00528000003415aAAA","2016-07-06T06:29:14.000Z","a012800000WkqnjAAB","","","false","","","0.0","false","10000.0","0.0","","入力","","","","","","",""
"a0528000008hLbGAAU","false","00000078","012280000003aZtAAI","2016-07-06T06:29:14.000Z","00528000003415aAAA","2016-07-06T06:29:15.000Z","00528000003415aAAA","2016-07-06T06:29:15.000Z","a012800000WkqnjAAB","","","false","","","0.0","false","10000.0","0.0","","消費税申告書作成","","","","","","",""
"a0528000008hLbHAAU","false","00000079","012280000003aZtAAI","2016-07-06T06:29:15.000Z","00528000003415aAAA","2016-07-06T06:29:15.000Z","00528000003415aAAA","2016-07-06T06:29:15.000Z","a012800000WkqnjAAB","","","false","","","0.0","false","10000.0","0.0","","内訳書概況書作成","","","","","","",""
"a0528000008hLbIAAU","false","00000080","012280000003aZtAAI","2016-07-06T06:29:15.000Z","00528000003415aAAA","2016-07-06T06:29:15.000Z","00528000003415aAAA","2016-07-06T06:29:15.000Z","a012800000WkqnjAAB","","","false","","","0.0","false","10000.0","0.0","","一次納品","","","","","","",""
"a0528000008hLbJAAU","false","00000081","012280000003aZtAAI","2016-07-06T06:29:15.000Z","00528000003415aAAA","2016-07-06T06:29:15.000Z","00528000003415aAAA","2016-07-06T06:29:15.000Z","a012800000WkqnjAAB","","","false","","","0.0","false","10000.0","0.0","","修正","","","","","","",""
"a0528000008hLbKAAU","false","00000082","012280000003aZtAAI","2016-07-06T06:29:15.000Z","00528000003415aAAA","2016-07-06T06:29:15.000Z","00528000003415aAAA","2016-07-06T06:29:15.000Z","a012800000WkqnjAAB","","","false","","","0.0","false","10000.0","0.0","","申告決算修正・申告書作成","","","","","","",""
"a0528000008hLbLAAU","false","00000083","012280000003aZtAAI","2016-07-06T06:29:15.000Z","00528000003415aAAA","2016-07-06T06:29:15.000Z","00528000003415aAAA","2016-07-06T06:29:15.000Z","a012800000WkqnjAAB","","","false","","","0.0","false","10000.0","0.0","","会計指針チェックリスト作成","","","","","","",""
"a0528000008hLbMAAU","false","00000084","012280000003aZtAAI","2016-07-06T06:29:15.000Z","00528000003415aAAA","2016-07-06T06:29:15.000Z","00528000003415aAAA","2016-07-06T06:29:15.000Z","a012800000WkqnjAAB","","","false","","","0.0","false","10000.0","0.0","","二次納品","","","","","","",""
"a0528000008hLbNAAU","false","00000085","012280000003aZtAAI","2016-07-06T06:29:15.000Z","00528000003415aAAA","2016-07-06T06:29:15.000Z","00528000003415aAAA","2016-07-06T06:29:15.000Z","a012800000WkqnjAAB","","","false","","","0.0","false","10000.0","0.0","","承認","","","","","","",""
"a0528000008hLbOAAU","false","00000086","012280000003aZtAAI","2016-07-06T06:29:15.000Z","00528000003415aAAA","2016-07-06T06:29:15.000Z","00528000003415aAAA","2016-07-06T06:29:15.000Z","a012800000WkqnjAAB","","","false","","","0.0","false","10000.0","0.0","","申告","","","","","","",""
"a0528000008hLbPAAU","false","00000087","012280000003aZtAAI","2016-07-06T06:29:16.000Z","00528000003415aAAA","2016-07-06T06:29:16.000Z","00528000003415aAAA","2016-07-06T06:29:16.000Z","a012800000WkqnjAAB","","","false","","","0.0","false","10000.0","0.0","","議事録作成","","","","","","",""
"a0528000008hLbQAAU","false","00000088","012280000003aZtAAI","2016-07-06T06:29:16.000Z","00528000003415aAAA","2016-07-06T06:29:16.000Z","00528000003415aAAA","2016-07-06T06:29:16.000Z","a012800000WkqnjAAB","","","false","","","0.0","false","10000.0","0.0","","商品化","","","","","","",""
"a0528000008hLbRAAU","false","00000089","012280000003aZtAAI","2016-07-06T06:29:16.000Z","00528000003415aAAA","2016-07-06T06:29:16.000Z","00528000003415aAAA","2016-07-06T06:29:16.000Z","a012800000WkqnjAAB","","","false","","","0.0","false","10000.0","0.0","","最終確認","","","","","","",""
"a0528000008hLJwAAM","false","00000070","012280000003aZtAAI","2016-07-06T05:40:16.000Z","00528000003415aAAA","2016-07-06T05:40:16.000Z","00528000003415aAAA","2016-07-06T05:40:16.000Z","a012800000UtaUjAAJ","","","false","00528000003kdfMAAQ","200.0","33334.0","false","10000.0","33334.0","","","","","","","","",""
"a0528000008hLwaAAE","false","00000108","012280000003aZtAAI","2016-07-06T07:31:23.000Z","00528000003415aAAA","2016-07-06T07:31:23.000Z","00528000003415aAAA","2016-07-06T07:31:23.000Z","a012800000WkvX8AAJ","","","false","","","0.0","false","10000.0","0.0","","税額予測作成・届出検討欄","","","","","","",""
"a0528000008hLwbAAE","false","00000109","012280000003aZtAAI","2016-07-06T07:31:23.000Z","00528000003415aAAA","2016-07-06T07:31:23.000Z","00528000003415aAAA","2016-07-06T07:31:23.000Z","a012800000WkvX8AAJ","","","false","","","0.0","false","10000.0","0.0","","決算申告資料収集","","","","","","",""
"a0528000008hLwcAAE","false","00000110","012280000003aZtAAI","2016-07-06T07:31:23.000Z","00528000003415aAAA","2016-07-06T07:31:23.000Z","00528000003415aAAA","2016-07-06T07:31:23.000Z","a012800000WkvX8AAJ","","","false","","","0.0","false","10000.0","0.0","","棚卸資産・負債証明書受領","","","","","","",""
"a0528000008hLwdAAE","false","00000111","012280000003aZtAAI","2016-07-06T07:31:23.000Z","00528000003415aAAA","2016-07-06T07:31:24.000Z","00528000003415aAAA","2016-07-06T07:31:24.000Z","a012800000WkvX8AAJ","","","false","","","0.0","false","10000.0","0.0","","前さばき","","","","","","",""
"a0528000008hLweAAE","false","00000112","012280000003aZtAAI","2016-07-06T07:31:24.000Z","00528000003415aAAA","2016-07-06T07:31:24.000Z","00528000003415aAAA","2016-07-06T07:31:24.000Z","a012800000WkvX8AAJ","","","false","","","0.0","false","10000.0","0.0","","入力","","","","","","",""
"a0528000008hLwfAAE","false","00000113","012280000003aZtAAI","2016-07-06T07:31:24.000Z","00528000003415aAAA","2016-07-06T07:31:24.000Z","00528000003415aAAA","2016-07-06T07:31:24.000Z","a012800000WkvX8AAJ","","","false","","","0.0","false","10000.0","0.0","","消費税申告書作成","","","","","","",""
"a0528000008hLwgAAE","false","00000114","012280000003aZtAAI","2016-07-06T07:31:24.000Z","00528000003415aAAA","2016-07-06T07:31:24.000Z","00528000003415aAAA","2016-07-06T07:31:24.000Z","a012800000WkvX8AAJ","","","false","","","0.0","false","10000.0","0.0","","内訳書概況書作成","","","","","","",""
"a0528000008hLwhAAE","false","00000115","012280000003aZtAAI","2016-07-06T07:31:24.000Z","00528000003415aAAA","2016-07-06T07:31:24.000Z","00528000003415aAAA","2016-07-06T07:31:24.000Z","a012800000WkvX8AAJ","","","false","","","0.0","false","10000.0","0.0","","一次納品","","","","","","",""
"a0528000008hLwiAAE","false","00000116","012280000003aZtAAI","2016-07-06T07:31:24.000Z","00528000003415aAAA","2016-07-06T07:31:24.000Z","00528000003415aAAA","2016-07-06T07:31:24.000Z","a012800000WkvX8AAJ","","","false","","","0.0","false","10000.0","0.0","","修正","","","","","","",""
"a0528000008hLwjAAE","false","00000117","012280000003aZtAAI","2016-07-06T07:31:24.000Z","00528000003415aAAA","2016-07-06T07:31:24.000Z","00528000003415aAAA","2016-07-06T07:31:24.000Z","a012800000WkvX8AAJ","","","false","","","0.0","false","10000.0","0.0","","申告決算修正・申告書作成","","","","","","",""
"a0528000008hLwkAAE","false","00000118","012280000003aZtAAI","2016-07-06T07:31:24.000Z","00528000003415aAAA","2016-07-06T07:31:24.000Z","00528000003415aAAA","2016-07-06T07:31:24.000Z","a012800000WkvX8AAJ","","","false","","","0.0","false","10000.0","0.0","","会計指針チェックリスト作成","","","","","","",""
"a0528000008hLwlAAE","false","00000119","012280000003aZtAAI","2016-07-06T07:31:24.000Z","00528000003415aAAA","2016-07-06T07:31:25.000Z","00528000003415aAAA","2016-07-06T07:31:25.000Z","a012800000WkvX8AAJ","","","false","","","0.0","false","10000.0","0.0","","二次納品","","","","","","",""
"a0528000008hLwmAAE","false","00000120","012280000003aZtAAI","2016-07-06T07:31:25.000Z","00528000003415aAAA","2016-07-06T07:31:25.000Z","00528000003415aAAA","2016-07-06T07:31:25.000Z","a012800000WkvX8AAJ","","","false","","","0.0","false","10000.0","0.0","","承認","","","","","","",""
"a0528000008hLwnAAE","false","00000121","012280000003aZtAAI","2016-07-06T07:31:25.000Z","00528000003415aAAA","2016-07-06T07:31:25.000Z","00528000003415aAAA","2016-07-06T07:31:25.000Z","a012800000WkvX8AAJ","","","false","","","0.0","false","10000.0","0.0","","申告","","","","","","",""
"a0528000008hLwoAAE","false","00000122","012280000003aZtAAI","2016-07-06T07:31:25.000Z","00528000003415aAAA","2016-07-06T07:31:25.000Z","00528000003415aAAA","2016-07-06T07:31:25.000Z","a012800000WkvX8AAJ","","","false","","","0.0","false","10000.0","0.0","","議事録作成","","","","","","",""
"a0528000008hLwpAAE","false","00000123","012280000003aZtAAI","2016-07-06T07:31:25.000Z","00528000003415aAAA","2016-07-06T07:31:25.000Z","00528000003415aAAA","2016-07-06T07:31:25.000Z","a012800000WkvX8AAJ","","","false","","","0.0","false","10000.0","0.0","","商品化","","","","","","",""
"a0528000008hLwqAAE","false","00000124","012280000003aZtAAI","2016-07-06T07:31:25.000Z","00528000003415aAAA","2016-07-06T07:31:25.000Z","00528000003415aAAA","2016-07-06T07:31:25.000Z","a012800000WkvX8AAJ","","","false","","","0.0","false","10000.0","0.0","","最終確認","","","","","","",""
"a0528000008hLHHAA2","false","00000069","012280000003aaJAAQ","2016-07-06T05:31:58.000Z","00528000003415aAAA","2016-07-06T05:36:21.000Z","00528000003415aAAA","2016-07-06T05:36:21.000Z","a012800000SVJTuAAP","","","false","00528000003dqwKAAQ","10.0","1667.0","false","10000.0","1667.0","","","","","","","","",""
"a0528000008hLcxAAE","false","00000090","012280000003aauAAA","2016-07-06T06:33:20.000Z","00528000003415aAAA","2016-07-06T06:33:21.000Z","00528000003415aAAA","2016-07-06T06:33:21.000Z","a012800000WkqsHAAR","","","false","00528000003kddLAAQ","100.0","16667.0","false","10000.0","16667.0","","","","","","","","",""
"a0528000008hLa3AAE","false","00000071","012280000003aaEAAQ","2016-07-06T06:25:52.000Z","00528000003415aAAA","2016-07-06T06:26:37.000Z","00528000003415aAAA","2016-07-06T06:26:37.000Z","a012800000WkqNFAAZ","2016-07-06","","false","00528000003415aAAA","100.0","8334.0","false","5000.0","16667.0","","","","","電話","","","","入れ替え作業"
"a0528000008hLamAAE","false","00000072","012280000003aaEAAQ","2016-07-06T06:28:02.000Z","00528000003415aAAA","2016-07-06T06:28:02.000Z","00528000003415aAAA","2016-07-06T06:28:02.000Z","a012800000WkqNFAAZ","","","false","00528000003dqwKAAQ","1000.0","166667.0","false","10000.0","166667.0","","","","","","","","",""
"a0528000008hLkUAAU","false","00000091","012280000003aZtAAI","2016-07-06T06:57:29.000Z","00528000003415aAAA","2016-07-06T06:57:29.000Z","00528000003415aAAA","2016-07-06T06:57:29.000Z","a012800000WksJDAAZ","","","false","","","0.0","false","10000.0","0.0","","税額予測作成・届出検討欄","","","","","","",""
"a0528000008hLkVAAU","false","00000092","012280000003aZtAAI","2016-07-06T06:57:29.000Z","00528000003415aAAA","2016-07-06T06:57:29.000Z","00528000003415aAAA","2016-07-06T06:57:29.000Z","a012800000WksJDAAZ","","","false","","","0.0","false","10000.0","0.0","","決算申告資料収集","","","","","","",""
"a0528000008hLkWAAU","false","00000093","012280000003aZtAAI","2016-07-06T06:57:29.000Z","00528000003415aAAA","2016-07-06T06:57:29.000Z","00528000003415aAAA","2016-07-06T06:57:29.000Z","a012800000WksJDAAZ","","","false","","","0.0","false","10000.0","0.0","","棚卸資産・負債証明書受領","","","","","","",""
"a0528000008hLkXAAU","false","00000094","012280000003aZtAAI","2016-07-06T06:57:29.000Z","00528000003415aAAA","2016-07-06T06:57:30.000Z","00528000003415aAAA","2016-07-06T06:57:30.000Z","a012800000WksJDAAZ","","","false","","","0.0","false","10000.0","0.0","","前さばき","","","","","","",""
"a0528000008hLkYAAU","false","00000095","012280000003aZtAAI","2016-07-06T06:57:30.000Z","00528000003415aAAA","2016-07-06T06:57:30.000Z","00528000003415aAAA","2016-07-06T06:57:30.000Z","a012800000WksJDAAZ","","","false","","","0.0","false","10000.0","0.0","","入力","","","","","","",""
"a0528000008hLkZAAU","false","00000096","012280000003aZtAAI","2016-07-06T06:57:30.000Z","00528000003415aAAA","2016-07-06T06:57:30.000Z","00528000003415aAAA","2016-07-06T06:57:30.000Z","a012800000WksJDAAZ","","","false","","","0.0","false","10000.0","0.0","","消費税申告書作成","","","","","","",""
"a0528000008hLkaAAE","false","00000097","012280000003aZtAAI","2016-07-06T06:57:30.000Z","00528000003415aAAA","2016-07-06T06:57:30.000Z","00528000003415aAAA","2016-07-06T06:57:30.000Z","a012800000WksJDAAZ","","","false","","","0.0","false","10000.0","0.0","","内訳書概況書作成","","","","","","",""
"a0528000008hLkbAAE","false","00000098","012280000003aZtAAI","2016-07-06T06:57:30.000Z","00528000003415aAAA","2016-07-06T06:57:30.000Z","00528000003415aAAA","2016-07-06T06:57:30.000Z","a012800000WksJDAAZ","","","false","","","0.0","false","10000.0","0.0","","一次納品","","","","","","",""
"a0528000008hLkcAAE","false","00000099","012280000003aZtAAI","2016-07-06T06:57:30.000Z","00528000003415aAAA","2016-07-06T06:57:30.000Z","00528000003415aAAA","2016-07-06T06:57:30.000Z","a012800000WksJDAAZ","","","false","","","0.0","false","10000.0","0.0","","修正","","","","","","",""
"a0528000008hLkdAAE","false","00000100","012280000003aZtAAI","2016-07-06T06:57:31.000Z","00528000003415aAAA","2016-07-06T06:57:31.000Z","00528000003415aAAA","2016-07-06T06:57:31.000Z","a012800000WksJDAAZ","","","false","","","0.0","false","10000.0","0.0","","申告決算修正・申告書作成","","","","","","",""
"a0528000008hLkeAAE","false","00000101","012280000003aZtAAI","2016-07-06T06:57:31.000Z","00528000003415aAAA","2016-07-06T06:57:31.000Z","00528000003415aAAA","2016-07-06T06:57:31.000Z","a012800000WksJDAAZ","","","false","","","0.0","false","10000.0","0.0","","会計指針チェックリスト作成","","","","","","",""
"a0528000008hLkfAAE","false","00000102","012280000003aZtAAI","2016-07-06T06:57:31.000Z","00528000003415aAAA","2016-07-06T06:57:31.000Z","00528000003415aAAA","2016-07-06T06:57:31.000Z","a012800000WksJDAAZ","","","false","","","0.0","false","10000.0","0.0","","二次納品","","","","","","",""
"a0528000008hLkgAAE","false","00000103","012280000003aZtAAI","2016-07-06T06:57:32.000Z","00528000003415aAAA","2016-07-06T06:57:32.000Z","00528000003415aAAA","2016-07-06T06:57:32.000Z","a012800000WksJDAAZ","","","false","","","0.0","false","10000.0","0.0","","承認","","","","","","",""
"a0528000008hLkhAAE","false","00000104","012280000003aZtAAI","2016-07-06T06:57:32.000Z","00528000003415aAAA","2016-07-06T06:57:32.000Z","00528000003415aAAA","2016-07-06T06:57:32.000Z","a012800000WksJDAAZ","","","false","","","0.0","false","10000.0","0.0","","申告","","","","","","",""
"a0528000008hLkiAAE","false","00000105","012280000003aZtAAI","2016-07-06T06:57:32.000Z","00528000003415aAAA","2016-07-06T06:57:33.000Z","00528000003415aAAA","2016-07-06T06:57:33.000Z","a012800000WksJDAAZ","","","false","","","0.0","false","10000.0","0.0","","議事録作成","","","","","","",""
"a0528000008hLkoAAE","false","00000106","012280000003aZtAAI","2016-07-06T06:57:33.000Z","00528000003415aAAA","2016-07-06T06:57:33.000Z","00528000003415aAAA","2016-07-06T06:57:33.000Z","a012800000WksJDAAZ","","","false","","","0.0","false","10000.0","0.0","","商品化","","","","","","",""
"a0528000008hLkpAAE","false","00000107","012280000003aZtAAI","2016-07-06T06:57:33.000Z","00528000003415aAAA","2016-07-06T06:57:33.000Z","00528000003415aAAA","2016-07-06T06:57:33.000Z","a012800000WksJDAAZ","","","false","","","0.0","false","10000.0","0.0","","最終確認","","","","","","",""
"a0528000008hLH2AAM","true","00000068","012280000003aaJAAQ","2016-07-06T05:31:15.000Z","00528000003415aAAA","2016-07-06T05:31:24.000Z","00528000003415aAAA","2016-07-06T05:31:24.000Z","a012800000SVJTuAAP","","","false","00528000003dqwKAAQ","","0.0","false","","0.0","","","","","","","","",""
